10_Project2_calc/_CALC/ADD_SUB_4/simulation/qsim/ADD_SUB_4.msim.vcd
$comment
	File created using the following command:
		vcd file ADD_SUB_4.msim.vcd -direction
$end
$date
	Fri Jul 18 14:49:07 2025
$end
$version
	ModelSim Version 2020.1
$end
$timescale
	1ps
$end

$scope module ADD_SUB_4_vlg_vec_tst $end
$var reg 4 ! A [3:0] $end
$var reg 4 " B [3:0] $end
$var reg 1 # CTR $end
$var wire 1 $ COUT $end
$var wire 1 % S [3] $end
$var wire 1 & S [2] $end
$var wire 1 ' S [1] $end
$var wire 1 ( S [0] $end
$var wire 1 ) SIGN $end

$scope module i1 $end
$var wire 1 * gnd $end
$var wire 1 + vcc $end
$var wire 1 , unknown $end
$var tri1 1 - devclrn $end
$var tri1 1 . devpor $end
$var tri1 1 / devoe $end
$var wire 1 0 SIGN~output_o $end
$var wire 1 1 COUT~output_o $end
$var wire 1 2 S[3]~output_o $end
$var wire 1 3 S[2]~output_o $end
$var wire 1 4 S[1]~output_o $end
$var wire 1 5 S[0]~output_o $end
$var wire 1 6 B[2]~input_o $end
$var wire 1 7 CTR~input_o $end
$var wire 1 8 A[2]~input_o $end
$var wire 1 9 A[1]~input_o $end
$var wire 1 : A[0]~input_o $end
$var wire 1 ; B[0]~input_o $end
$var wire 1 < inst|inst|inst2~0_combout $end
$var wire 1 = B[1]~input_o $end
$var wire 1 > inst|inst7|inst2~0_combout $end
$var wire 1 ? inst|inst8|inst2~0_combout $end
$var wire 1 @ B[3]~input_o $end
$var wire 1 A A[3]~input_o $end
$var wire 1 B inst7~combout $end
$var wire 1 C inst12~combout $end
$var wire 1 D inst|inst9|inst2~0_combout $end
$var wire 1 E inst|inst|inst|inst~combout $end
$var wire 1 F inst|inst7|inst1|inst~combout $end
$var wire 1 G inst5|inst7|inst1|inst1~combout $end
$var wire 1 H inst5|inst9|inst1|inst~2_combout $end
$var wire 1 I inst9~0_combout $end
$var wire 1 J inst9~combout $end
$var wire 1 K inst5|inst9|inst1|inst~combout $end
$var wire 1 L inst5|inst8|inst1|inst~combout $end
$var wire 1 M inst5|inst7|inst1|inst~combout $end
$upscope $end
$upscope $end
$enddefinitions $end
#0
$dumpvars
b0 !
b1001 "
0#
0$
1(
0'
0&
1%
0)
0*
1+
x,
1-
1.
1/
00
01
12
03
04
15
06
07
08
09
0:
1;
0<
0=
0>
0?
1@
0A
0B
0C
0D
1E
0F
1G
1H
0I
0J
1K
1L
0M
$end
#50000
b1 !
1:
1<
0E
05
1F
0(
1M
14
1'
#100000
b11 !
b10 !
0:
19
0<
0F
1>
1E
15
1F
0>
1J
1(
0M
04
0J
0L
0'
1M
14
13
1L
1&
1'
03
0&
#150000
b11 !
1:
1<
0E
05
0F
1>
0(
1J
0M
04
0L
0'
13
1&
#200000
b111 !
b101 !
b100 !
0:
09
18
0<
1F
0>
1I
1?
1E
15
0F
0?
1D
1(
1M
0K
1C
11
02
14
0D
1'
0%
1$
0M
1K
0C
01
12
04
0'
1%
0$
#250000
b101 !
1:
1<
0E
05
1F
0(
1M
14
1'
#300000
b111 !
b110 !
0:
19
0<
0F
1>
1E
15
1F
0>
0J
1?
1(
0M
04
1J
0?
1L
1D
0'
1M
0K
1C
11
02
14
03
0L
0D
0&
1'
0%
1$
1K
0C
01
12
13
1&
1%
0$
#350000
b111 !
1:
1<
0E
05
0F
1>
0(
0J
1?
0M
04
1L
1D
0'
0K
1C
11
02
03
0&
0%
1$
#400000
b1111 !
b1011 !
b1001 !
b1000 !
0:
09
08
1A
0<
1F
0>
0I
0?
0H
1E
15
0F
1(
1M
14
1'
0M
04
0'
#450000
b1001 !
1:
1<
0E
05
1F
0(
1M
14
1'
#500000
b1011 !
b1010 !
0:
19
0<
0F
1>
1E
15
1F
0>
1J
1(
0M
04
0J
0L
0'
1M
14
13
1L
1&
1'
03
0&
#550000
b1011 !
1:
1<
0E
05
0F
1>
0(
1J
0M
04
0L
0'
13
1&
#600000
b1111 !
b1101 !
b1100 !
0:
09
18
0<
1F
0>
1I
1?
1E
15
0F
0?
1(
1M
1K
12
14
1'
1%
0M
0K
02
04
0'
0%
#650000
b1101 !
1:
1<
0E
05
1F
0(
1M
14
1'
#700000
b1111 !
b1110 !
0:
19
0<
0F
1>
1E
15
1F
0>
0J
1?
1(
0M
04
1J
0?
1L
0'
1M
1K
12
14
03
0L
0&
1'
1%
0K
02
13
1&
0%
#750000
b1111 !
1:
1<
0E
05
0F
1>
0(
0J
1?
0M
04
1L
0'
1K
12
03
0&
1%
#800000
b111 !
b11 !
b1 !
b0 !
0:
09
08
0A
0<
1F
0>
0I
0?
1H
1E
15
0F
0D
1(
1M
0C
01
14
1'
0$
0M
04
0'
#850000
b1 !
1:
1<
0E
05
1F
0(
1M
14
1'
#900000
b11 !
b10 !
0:
19
0<
0F
1>
1E
15
1F
0>
1J
1(
0M
04
0J
0L
0'
1M
14
13
1L
1&
1'
03
0&
#950000
b11 !
1:
1<
0E
05
0F
1>
0(
1J
0M
04
0L
0'
13
1&
