10_Project2_calc/pds/ADD_SUB_4/simulation/qsim/ADD_SUB_4.msim.vcd
$comment
	File created using the following command:
		vcd file ADD_SUB_4.msim.vcd -direction
$end
$date
	Wed Jul 23 21:48:17 2025
$end
$version
	ModelSim Version 2020.1
$end
$timescale
	1ps
$end

$scope module ADD_SUB_4_vlg_vec_tst $end
$var reg 4 ! A [3:0] $end
$var reg 4 " B [3:0] $end
$var reg 1 # CTR $end
$var wire 1 $ COUT $end
$var wire 1 % S [3] $end
$var wire 1 & S [2] $end
$var wire 1 ' S [1] $end
$var wire 1 ( S [0] $end
$var wire 1 ) SIGN $end

$scope module i1 $end
$var wire 1 * gnd $end
$var wire 1 + vcc $end
$var wire 1 , unknown $end
$var tri1 1 - devclrn $end
$var tri1 1 . devpor $end
$var tri1 1 / devoe $end
$var wire 1 0 COUT~output_o $end
$var wire 1 1 SIGN~output_o $end
$var wire 1 2 S[3]~output_o $end
$var wire 1 3 S[2]~output_o $end
$var wire 1 4 S[1]~output_o $end
$var wire 1 5 S[0]~output_o $end
$var wire 1 6 A[3]~input_o $end
$var wire 1 7 CTR~input_o $end
$var wire 1 8 B[1]~input_o $end
$var wire 1 9 A[1]~input_o $end
$var wire 1 : B[0]~input_o $end
$var wire 1 ; A[0]~input_o $end
$var wire 1 < inst10|inst3|inst2~0_combout $end
$var wire 1 = inst10|inst2|inst2~0_combout $end
$var wire 1 > A[2]~input_o $end
$var wire 1 ? B[2]~input_o $end
$var wire 1 @ inst10|inst1|inst2~0_combout $end
$var wire 1 A B[3]~input_o $end
$var wire 1 B inst15~combout $end
$var wire 1 C inst14~combout $end
$var wire 1 D inst10|inst|inst2~0_combout $end
$var wire 1 E inst11|inst5~0_combout $end
$var wire 1 F inst11|inst5~combout $end
$var wire 1 G inst10|inst2|inst1|inst~combout $end
$var wire 1 H inst10|inst3|inst|inst~combout $end
$var wire 1 I inst11|inst2|inst1|inst1~combout $end
$var wire 1 J inst11|inst|inst1|inst~2_combout $end
$var wire 1 K inst11|inst|inst1|inst~combout $end
$var wire 1 L inst11|inst1|inst1|inst~combout $end
$var wire 1 M inst11|inst2|inst1|inst~combout $end
$upscope $end
$upscope $end
$enddefinitions $end
#0
$dumpvars
b110 !
b101 "
0#
0$
1(
1'
0&
1%
0)
0*
1+
x,
1-
1.
1/
00
01
12
03
14
15
06
07
08
19
1:
0;
0<
0=
1>
1?
1@
0A
0B
0C
0D
0E
0F
1G
1H
1I
0J
1K
1L
1M
$end
#125000
1#
17
1J
0G
1D
0@
1=
0M
04
0J
0D
1@
0'
1C
11
1F
1J
1D
1)
1M
0C
01
14
0L
0F
1'
0)
0K
0M
04
02
13
1L
1&
0%
0'
03
0&
#250000
b1101 "
b1001 "
b1000 "
0#
0:
0?
1A
07
1E
1G
1F
0=
0H
1B
10
05
0L
0@
0(
1$
1M
14
13
0D
1&
1'
1K
0B
00
12
1%
0$
#375000
1#
17
0G
1@
1=
1<
1C
11
0I
0F
1G
1)
0M
0K
02
04
1I
0'
0%
1M
14
1L
1'
03
0&
#500000
b1110 !
b1010 !
b1010 "
b1011 "
0#
1:
18
0>
16
07
0<
0E
0@
0J
1D
1H
0C
1B
10
01
15
0G
1F
1(
0)
1$
0L
0M
04
13
1&
0'
#625000
1#
17
1G
0F
0D
1@
0=
1C
0B
00
11
1L
1J
1D
0@
1)
0$
1K
0C
01
12
03
1F
0J
0D
0&
1%
0)
1M
1C
11
14
0L
0F
1'
1)
0K
0M
04
02
13
1L
1&
0%
0'
03
0&
#750000
b11 "
b111 "
0#
1?
0A
07
1E
1J
0G
1=
0C
1M
14
01
1@
0)
1'
1K
0M
04
12
1D
1%
0'
0K
1B
10
02
0%
1$
#875000
1#
17
0J
1G
1F
0@
0=
0B
00
0L
0F
0$
1M
14
13
1L
1&
1'
03
0&
