9_Project_traffic/_TRAFFIC/COMP4/simulation/qsim/COMP4.msim.vcd
$comment
	File created using the following command:
		vcd file COMP4.msim.vcd -direction
$end
$date
	Fri Jul 18 11:00:54 2025
$end
$version
	ModelSim Version 2020.1
$end
$timescale
	1ps
$end

$scope module COMP4_vlg_vec_tst $end
$var reg 4 ! A [3:0] $end
$var reg 4 " B [3:0] $end
$var wire 1 # EQ $end
$var wire 1 $ LA $end
$var wire 1 % LB $end

$scope module i1 $end
$var wire 1 & gnd $end
$var wire 1 ' vcc $end
$var wire 1 ( unknown $end
$var tri1 1 ) devclrn $end
$var tri1 1 * devpor $end
$var tri1 1 + devoe $end
$var wire 1 , EQ~output_o $end
$var wire 1 - LA~output_o $end
$var wire 1 . LB~output_o $end
$var wire 1 / A[3]~input_o $end
$var wire 1 0 B[2]~input_o $end
$var wire 1 1 B[3]~input_o $end
$var wire 1 2 A[2]~input_o $end
$var wire 1 3 inst2|inst13~combout $end
$var wire 1 4 A[1]~input_o $end
$var wire 1 5 B[1]~input_o $end
$var wire 1 6 A[0]~input_o $end
$var wire 1 7 B[0]~input_o $end
$var wire 1 8 inst|INST98~combout $end
$var wire 1 9 inst|inst13~combout $end
$var wire 1 : inst2|INST98~combout $end
$var wire 1 ; inst3|inst99~combout $end
$var wire 1 < inst3|inst13~combout $end
$var wire 1 = inst3|INST98~combout $end
$upscope $end
$upscope $end
$enddefinitions $end
#0
$dumpvars
b0 !
b0 "
1#
0$
0%
0&
1'
x(
1)
1*
1+
1,
0-
0.
0/
00
01
02
03
04
05
06
07
08
09
0:
0;
0<
0=
$end
#10000
b1 !
16
19
1;
1<
1-
0,
0#
1$
#20000
b11 !
b10 !
06
14
#30000
b11 !
16
#40000
b111 !
b101 !
b100 !
06
04
12
09
13
#50000
b101 !
16
19
#60000
b111 !
b110 !
06
14
#70000
b111 !
16
#80000
b1111 !
b1 "
b1011 !
b1001 !
b1000 !
17
06
04
02
1/
09
18
#90000
b1001 !
16
08
#100000
b1011 !
b1010 !
06
14
19
#110000
b1011 !
16
#120000
b1111 !
b1101 !
b1100 !
06
04
12
09
18
#130000
b1101 !
16
08
#140000
b1111 !
b1110 !
06
14
19
#150000
b1111 !
16
#160000
b11 "
b111 !
b10 "
b11 !
b1 !
b0 !
06
04
02
0/
07
15
09
18
03
1=
0<
0-
1.
1%
0$
#170000
b1 !
16
#180000
b11 !
b10 !
06
14
08
0;
0=
0.
1,
1#
0%
#190000
b11 !
16
19
1;
1<
1-
0,
0#
1$
#200000
b111 !
b101 !
b100 !
06
04
12
09
18
13
#210000
b101 !
16
#220000
b111 !
b110 !
06
14
08
#230000
b111 !
16
19
#240000
b1111 !
b11 "
b1011 !
b1001 !
b1000 !
17
06
04
02
1/
09
18
#250000
b1001 !
16
#260000
b1011 !
b1010 !
06
14
#270000
b1011 !
16
08
#280000
b1111 !
b1101 !
b1100 !
06
04
12
18
#290000
b1101 !
16
#300000
b1111 !
b1110 !
06
14
#310000
b1111 !
16
08
#320000
b111 "
b101 "
b111 !
b100 "
b11 !
b1 !
b0 !
06
04
02
0/
07
05
10
1:
03
1=
0<
0-
1.
1%
0$
#330000
b1 !
16
19
#340000
b11 !
b10 !
06
14
#350000
b11 !
16
#360000
b111 !
b101 !
b100 !
06
04
12
09
0:
0;
0=
0.
1,
1#
0%
#370000
b101 !
16
19
1;
1<
1-
0,
0#
1$
#380000
b111 !
b110 !
06
14
#390000
b111 !
16
#400000
b1111 !
b101 "
b1011 !
b1001 !
b1000 !
17
06
04
02
1/
09
18
13
#410000
b1001 !
16
08
#420000
b1011 !
b1010 !
06
14
19
#430000
b1011 !
16
#440000
b1111 !
b1101 !
b1100 !
06
04
12
09
18
#450000
b1101 !
16
08
#460000
b1111 !
b1110 !
06
14
19
#470000
b1111 !
16
#480000
b111 "
b111 !
b110 "
b11 !
b1 !
b0 !
06
04
02
0/
07
15
09
18
1:
03
1=
0<
0-
1.
1%
0$
#490000
b1 !
16
#500000
b11 !
b10 !
06
14
08
#510000
b11 !
16
19
#520000
b111 !
b101 !
b100 !
06
04
12
09
18
0:
#530000
b101 !
16
#540000
b111 !
b110 !
06
14
08
0;
0=
0.
1,
1#
0%
#550000
b111 !
16
19
1;
1<
1-
0,
0#
1$
#560000
b1111 !
b111 "
b1011 !
b1001 !
b1000 !
17
06
04
02
1/
09
18
13
#570000
b1001 !
16
#580000
b1011 !
b1010 !
06
14
#590000
b1011 !
16
08
#600000
b1111 !
b1101 !
b1100 !
06
04
12
18
#610000
b1101 !
16
#620000
b1111 !
b1110 !
06
14
#630000
b1111 !
16
08
#640000
b1111 "
b1011 "
b1001 "
b111 !
b1000 "
b11 !
b1 !
b0 !
06
04
02
0/
07
05
00
11
1:
03
1=
0<
0-
1.
1%
0$
#650000
b1 !
16
19
#660000
b11 !
b10 !
06
14
#670000
b11 !
16
#680000
b111 !
b101 !
b100 !
06
04
12
09
#690000
b101 !
16
19
#700000
b111 !
b110 !
06
14
#710000
b111 !
16
#720000
b1111 !
b1001 "
b1011 !
b1001 !
b1000 !
17
06
04
02
1/
09
18
0:
#730000
b1001 !
16
08
0;
0=
0.
1,
1#
0%
#740000
b1011 !
b1010 !
06
14
19
1;
1<
1-
0,
0#
1$
#750000
b1011 !
16
#760000
b1111 !
b1101 !
b1100 !
06
04
12
09
18
13
#770000
b1101 !
16
08
#780000
b1111 !
b1110 !
06
14
19
#790000
b1111 !
16
#800000
b1011 "
b111 !
b1010 "
b11 !
b1 !
b0 !
06
04
02
0/
07
15
09
18
1:
03
1=
0<
0-
1.
1%
0$
#810000
b1 !
16
#820000
b11 !
b10 !
06
14
08
#830000
b11 !
16
19
#840000
b111 !
b101 !
b100 !
06
04
12
09
18
#850000
b101 !
16
#860000
b111 !
b110 !
06
14
08
#870000
b111 !
16
19
#880000
b1111 !
b1011 "
b1011 !
b1001 !
b1000 !
17
06
04
02
1/
09
18
0:
#890000
b1001 !
16
#900000
b1011 !
b1010 !
06
14
#910000
b1011 !
16
08
0;
0=
0.
1,
1#
0%
#920000
b1111 !
b1101 !
b1100 !
06
04
12
18
13
1;
1<
1-
0,
0#
1$
#930000
b1101 !
16
#940000
b1111 !
b1110 !
06
14
#950000
b1111 !
16
08
#960000
b1111 "
b1101 "
b111 !
b1100 "
b11 !
b1 !
b0 !
06
04
02
0/
07
05
10
1:
03
1=
0<
0-
1.
1%
0$
#970000
b1 !
16
19
#980000
b11 !
b10 !
06
14
#990000
b11 !
16
