9_Project_traffic/_TRAFFIC/TC/simulation/qsim/TC.msim.vcd
$comment
	File created using the following command:
		vcd file TC.msim.vcd -direction
$end
$date
	Fri Jul 18 11:36:43 2025
$end
$version
	ModelSim Version 2020.1
$end
$timescale
	1ps
$end

$scope module TC_vlg_vec_tst $end
$var reg 1 ! CLK $end
$var wire 1 " C_GREEN $end
$var wire 1 # C_LEFT $end
$var wire 1 $ C_YELLOW $end
$var wire 1 % Q [3] $end
$var wire 1 & Q [2] $end
$var wire 1 ' Q [1] $end
$var wire 1 ( Q [0] $end
$var wire 1 ) W_GREEN $end

$scope module i1 $end
$var wire 1 * gnd $end
$var wire 1 + vcc $end
$var wire 1 , unknown $end
$var tri1 1 - devclrn $end
$var tri1 1 . devpor $end
$var tri1 1 / devoe $end
$var wire 1 0 C_GREEN~output_o $end
$var wire 1 1 Q[3]~output_o $end
$var wire 1 2 Q[2]~output_o $end
$var wire 1 3 Q[1]~output_o $end
$var wire 1 4 Q[0]~output_o $end
$var wire 1 5 C_LEFT~output_o $end
$var wire 1 6 C_YELLOW~output_o $end
$var wire 1 7 W_GREEN~output_o $end
$var wire 1 8 CLK~input_o $end
$var wire 1 9 CLK~inputclkctrl_outclk $end
$var wire 1 : inst50|46~0_combout $end
$var wire 1 ; inst50|45~0_combout $end
$var wire 1 < inst50|45~q $end
$var wire 1 = inst50|43~1_combout $end
$var wire 1 > inst50|43~q $end
$var wire 1 ? inst2~combout $end
$var wire 1 @ inst50|46~q $end
$var wire 1 A inst50|44~0_combout $end
$var wire 1 B inst50|44~q $end
$var wire 1 C inst50|43~0_combout $end
$var wire 1 D inst~0_combout $end
$upscope $end
$upscope $end
$enddefinitions $end
#0
$dumpvars
0!
1"
1#
0$
0(
0'
0&
0%
1)
0*
1+
x,
1-
1.
1/
10
01
02
03
04
15
06
17
08
09
1:
0;
0<
0=
0>
0?
0@
0A
0B
1C
1D
$end
#10000
1!
18
19
1@
14
1(
1;
0:
#20000
0!
08
09
#30000
1!
18
19
0@
1<
13
04
0(
1'
1:
#40000
0!
08
09
#50000
1!
18
19
1@
14
1(
1A
0;
0:
#60000
0!
08
09
#70000
1!
18
19
1B
0@
0<
03
04
12
1&
0(
0'
1:
#80000
0!
08
09
#90000
1!
18
19
1@
14
1(
1;
0:
#100000
0!
08
09
#110000
1!
18
19
0@
1<
13
04
0(
1'
1:
#120000
0!
08
09
#130000
1!
18
19
1@
14
1(
0C
0A
0;
0:
16
00
05
0#
0"
1$
1=
#140000
0!
08
09
0D
07
0)
#150000
1!
18
19
1D
17
1)
0B
0@
1>
0<
03
11
04
02
0&
0(
1%
0'
1:
#160000
0!
08
09
0D
07
0)
#170000
1!
18
19
1D
17
1)
1@
14
1(
1;
0:
#180000
0!
08
09
0D
07
0)
#190000
1!
18
19
1D
17
1)
0@
1<
13
04
1?
0(
1'
1:
0<
0>
01
03
0?
0'
0%
1C
0;
06
10
15
1#
1"
0$
0=
#200000
0!
08
09
#210000
1!
18
19
1@
14
1(
1;
0:
#220000
0!
08
09
#230000
1!
18
19
0@
1<
13
04
0(
1'
1:
#240000
0!
08
09
#250000
1!
18
19
1@
14
1(
1A
0;
0:
#260000
0!
08
09
#270000
1!
18
19
1B
0@
0<
03
04
12
1&
0(
0'
1:
#280000
0!
08
09
#290000
1!
18
19
1@
14
1(
1;
0:
#300000
0!
08
09
#310000
1!
18
19
0@
1<
13
04
0(
1'
1:
#320000
0!
08
09
#330000
1!
18
19
1@
14
1(
0C
0A
0;
0:
16
00
05
0#
0"
1$
1=
#340000
0!
08
09
0D
07
0)
#350000
1!
18
19
1D
17
1)
0B
0@
1>
0<
03
11
04
02
0&
0(
1%
0'
1:
#360000
0!
08
09
0D
07
0)
#370000
1!
18
19
1D
17
1)
1@
14
1(
1;
0:
#380000
0!
08
09
0D
07
0)
#390000
1!
18
19
1D
17
1)
0@
1<
13
04
1?
0(
1'
1:
0<
0>
01
03
0?
0'
0%
1C
0;
06
10
15
1#
1"
0$
0=
#400000
0!
08
09
#410000
1!
18
19
1@
14
1(
1;
0:
#420000
0!
08
09
#430000
1!
18
19
0@
1<
13
04
0(
1'
1:
#440000
0!
08
09
#450000
1!
18
19
1@
14
1(
1A
0;
0:
#460000
0!
08
09
#470000
1!
18
19
1B
0@
0<
03
04
12
1&
0(
0'
1:
#480000
0!
08
09
#490000
1!
18
19
1@
14
1(
1;
0:
#500000
0!
08
09
#510000
1!
18
19
0@
1<
13
04
0(
1'
1:
#520000
0!
08
09
#530000
1!
18
19
1@
14
1(
0C
0A
0;
0:
16
00
05
0#
0"
1$
1=
#540000
0!
08
09
0D
07
0)
#550000
1!
18
19
1D
17
1)
0B
0@
1>
0<
03
11
04
02
0&
0(
1%
0'
1:
#560000
0!
08
09
0D
07
0)
#570000
1!
18
19
1D
17
1)
1@
14
1(
1;
0:
#580000
0!
08
09
0D
07
0)
#590000
1!
18
19
1D
17
1)
0@
1<
13
04
1?
0(
1'
1:
0<
0>
01
03
0?
0'
0%
1C
0;
06
10
15
1#
1"
0$
0=
#600000
0!
08
09
#610000
1!
18
19
1@
14
1(
1;
0:
#620000
0!
08
09
#630000
1!
18
19
0@
1<
13
04
0(
1'
1:
#640000
0!
08
09
#650000
1!
18
19
1@
14
1(
1A
0;
0:
#660000
0!
08
09
#670000
1!
18
19
1B
0@
0<
03
04
12
1&
0(
0'
1:
#680000
0!
08
09
#690000
1!
18
19
1@
14
1(
1;
0:
#700000
0!
08
09
#710000
1!
18
19
0@
1<
13
04
0(
1'
1:
#720000
0!
08
09
#730000
1!
18
19
1@
14
1(
0C
0A
0;
0:
16
00
05
0#
0"
1$
1=
#740000
0!
08
09
0D
07
0)
#750000
1!
18
19
1D
17
1)
0B
0@
1>
0<
03
11
04
02
0&
0(
1%
0'
1:
#760000
0!
08
09
0D
07
0)
#770000
1!
18
19
1D
17
1)
1@
14
1(
1;
0:
#780000
0!
08
09
0D
07
0)
#790000
1!
18
19
1D
17
1)
0@
1<
13
04
1?
0(
1'
1:
0<
0>
01
03
0?
0'
0%
1C
0;
06
10
15
1#
1"
0$
0=
#800000
0!
08
09
#810000
1!
18
19
1@
14
1(
1;
0:
#820000
0!
08
09
#830000
1!
18
19
0@
1<
13
04
0(
1'
1:
#840000
0!
08
09
#850000
1!
18
19
1@
14
1(
1A
0;
0:
#860000
0!
08
09
#870000
1!
18
19
1B
0@
0<
03
04
12
1&
0(
0'
1:
#880000
0!
08
09
#890000
1!
18
19
1@
14
1(
1;
0:
#900000
0!
08
09
#910000
1!
18
19
0@
1<
13
04
0(
1'
1:
#920000
0!
08
09
#930000
1!
18
19
1@
14
1(
0C
0A
0;
0:
16
00
05
0#
0"
1$
1=
#940000
0!
08
09
0D
07
0)
#950000
1!
18
19
1D
17
1)
0B
0@
1>
0<
03
11
04
02
0&
0(
1%
0'
1:
#960000
0!
08
09
0D
07
0)
#970000
1!
18
19
1D
17
1)
1@
14
1(
1;
0:
#980000
0!
08
09
0D
07
0)
#990000
1!
18
19
1D
17
1)
0@
1<
13
04
1?
0(
1'
1:
0<
0>
01
03
0?
0'
0%
1C
0;
06
10
15
1#
1"
0$
0=
