09_Project2_Calculator/_CALC/DIV4/simulation/qsim/DIV4.msim.vcd
$comment
	File created using the following command:
		vcd file DIV4.msim.vcd -direction
$end
$date
	Fri Jul 18 16:25:35 2025
$end
$version
	ModelSim Version 2020.1
$end
$timescale
	1ps
$end

$scope module DIV4_vlg_vec_tst $end
$var reg 4 ! A [3:0] $end
$var reg 4 " B [3:0] $end
$var wire 1 # D [3] $end
$var wire 1 $ D [2] $end
$var wire 1 % D [1] $end
$var wire 1 & D [0] $end

$scope module i1 $end
$var wire 1 ' gnd $end
$var wire 1 ( vcc $end
$var wire 1 ) unknown $end
$var tri1 1 * devclrn $end
$var tri1 1 + devpor $end
$var tri1 1 , devoe $end
$var wire 1 - D[3]~output_o $end
$var wire 1 . D[2]~output_o $end
$var wire 1 / D[1]~output_o $end
$var wire 1 0 D[0]~output_o $end
$var wire 1 1 B[1]~input_o $end
$var wire 1 2 B[3]~input_o $end
$var wire 1 3 B[2]~input_o $end
$var wire 1 4 inst|inst9|inst1|inst1~0_combout $end
$var wire 1 5 B[0]~input_o $end
$var wire 1 6 A[3]~input_o $end
$var wire 1 7 inst|inst9|inst1|inst1~1_combout $end
$var wire 1 8 A[2]~input_o $end
$var wire 1 9 inst11|inst9|inst2~0_combout $end
$var wire 1 : inst11|inst9|inst2~1_combout $end
$var wire 1 ; inst16|inst7|inst|inst1~combout $end
$var wire 1 < A[1]~input_o $end
$var wire 1 = inst16|inst7|inst|inst~combout $end
$var wire 1 > inst16|inst7|inst2~combout $end
$var wire 1 ? inst17|23~0_combout $end
$var wire 1 @ inst16|inst9|inst1|inst1~0_combout $end
$var wire 1 A inst16|inst|inst2~0_combout $end
$var wire 1 B inst24|23~0_combout $end
$var wire 1 C inst16|inst8|inst|inst~combout $end
$var wire 1 D inst24|22~0_combout $end
$var wire 1 E inst25|inst9|inst2~1_combout $end
$var wire 1 F inst25|inst9|inst|inst1~0_combout $end
$var wire 1 G inst25|inst9|inst|inst1~1_combout $end
$var wire 1 H inst24|24~0_combout $end
$var wire 1 I A[0]~input_o $end
$var wire 1 J inst25|inst9|inst2~0_combout $end
$var wire 1 K inst25|inst9|inst1|inst1~0_combout $end
$var wire 1 L inst25|inst9|inst1|inst1~1_combout $end
$var wire 1 M inst25|inst9|inst1|inst1~2_combout $end
$var wire 1 N inst25|inst9|inst1|inst1~3_combout $end
$var wire 1 O inst25|inst9|inst2~2_combout $end
$upscope $end
$upscope $end
$enddefinitions $end
#0
$dumpvars
b1111 !
b0 "
1&
1%
1$
1#
0'
1(
x)
1*
1+
1,
1-
1.
1/
10
01
02
03
14
05
16
17
18
19
1:
1;
1<
1=
1>
1?
1@
1A
1B
1C
1D
0E
0F
1G
1H
1I
1J
0K
1L
0M
0N
1O
$end
#50000
b1 "
15
0H
0?
0=
0;
1M
1F
0C
0L
0B
1N
0G
0D
0M
1E
0N
#100000
b11 "
b10 "
05
11
0J
1H
1?
04
1J
0F
1C
0?
0O
07
0-
00
1G
1D
1F
0C
0&
0#
1O
10
0E
0G
0D
1&
1E
0O
00
0&
1O
10
1&
#150000
b11 "
15
0H
1=
0J
1L
1B
0>
0E
0F
1D
0O
0@
0/
00
1G
1H
0&
0%
1J
1O
10
1&
#200000
b111 "
b101 "
b100 "
05
01
13
1;
1F
1C
0:
0.
1>
1?
0$
0C
1@
1/
0D
0G
1%
1E
0O
00
0&
1O
10
1&
#250000
b101 "
15
0H
#300000
b111 "
b110 "
05
11
0J
1H
0=
0;
1J
0L
0B
0O
00
0E
0&
1O
10
1&
0O
00
0&
#350000
b111 "
15
0H
0J
#400000
b1111 "
b1011 "
b1001 "
b1000 "
05
01
03
12
1J
1H
1=
1;
0F
1C
1K
0@
0/
1L
1B
1D
1N
0%
1M
1O
10
1&
#450000
b1001 "
15
#500000
b1011 "
b1010 "
05
11
0=
0;
0L
0M
#550000
b1011 "
15
#600000
b1111 "
b1101 "
b1100 "
05
01
13
1=
1;
0N
1F
1E
0C
1L
1M
#650000
b1101 "
15
#700000
b1111 "
b1110 "
05
11
0=
0;
0L
0M
#750000
b1111 "
15
#800000
b111 "
b11 "
b1 "
b0 "
05
01
03
02
1=
1;
14
1N
0F
0E
1C
0K
1G
1@
1:
1.
1/
1L
0N
1%
1$
17
1-
1#
#850000
b1 "
15
0H
0?
0=
0;
1M
1F
0C
0L
0B
1N
0G
0D
0M
1E
0N
#900000
b11 "
b10 "
05
11
0J
1H
1?
04
1J
0F
1C
0?
0O
07
0-
00
1G
1D
1F
0C
0&
0#
1O
10
0E
0G
0D
1&
1E
0O
00
0&
1O
10
1&
#950000
b11 "
15
0H
1=
0J
1L
1B
0>
0E
0F
1D
0O
0@
0/
00
1G
1H
0&
0%
1J
1O
10
1&
