9_Project_traffic/_TRAFFIC/TRAFFIC/simulation/qsim/TRAFFIC.msim.vcd
$comment
	File created using the following command:
		vcd file TRAFFIC.msim.vcd -direction
$end
$date
	Fri Jul 18 13:26:31 2025
$end
$version
	ModelSim Version 2020.1
$end
$timescale
	1ps
$end

$scope module TRAFFIC_vlg_vec_tst $end
$var reg 1 ! CLK $end
$var wire 1 " E_GREEN $end
$var wire 1 # E_LEFT $end
$var wire 1 $ E_RED $end
$var wire 1 % E_WG $end
$var wire 1 & E_WR $end
$var wire 1 ' E_YELLOW $end
$var wire 1 ( N_GREEN $end
$var wire 1 ) N_LEFT $end
$var wire 1 * N_RED $end
$var wire 1 + N_WG $end
$var wire 1 , N_WR $end
$var wire 1 - N_YELLOW $end
$var wire 1 . S_GREEN $end
$var wire 1 / S_LEFT $end
$var wire 1 0 S_RED $end
$var wire 1 1 S_WG $end
$var wire 1 2 S_WR $end
$var wire 1 3 S_YELLOW $end
$var wire 1 4 SEL_E $end
$var wire 1 5 SEL_N $end
$var wire 1 6 SEL_S $end
$var wire 1 7 SEL_W $end
$var wire 1 8 W_GREEN $end
$var wire 1 9 W_LEFT $end
$var wire 1 : W_RED $end
$var wire 1 ; W_WG $end
$var wire 1 < W_WR $end
$var wire 1 = W_YELLOW $end

$scope module i1 $end
$var wire 1 > gnd $end
$var wire 1 ? vcc $end
$var wire 1 @ unknown $end
$var tri1 1 A devclrn $end
$var tri1 1 B devpor $end
$var tri1 1 C devoe $end
$var wire 1 D SEL_S~output_o $end
$var wire 1 E N_GREEN~output_o $end
$var wire 1 F SEL_N~output_o $end
$var wire 1 G N_LEFT~output_o $end
$var wire 1 H N_YELLOW~output_o $end
$var wire 1 I S_GREEN~output_o $end
$var wire 1 J S_LEFT~output_o $end
$var wire 1 K S_YELLOW~output_o $end
$var wire 1 L E_WG~output_o $end
$var wire 1 M W_WG~output_o $end
$var wire 1 N E_GREEN~output_o $end
$var wire 1 O SEL_E~output_o $end
$var wire 1 P E_LEFT~output_o $end
$var wire 1 Q E_YELLOW~output_o $end
$var wire 1 R S_WG~output_o $end
$var wire 1 S W_GREEN~output_o $end
$var wire 1 T SEL_W~output_o $end
$var wire 1 U W_LEFT~output_o $end
$var wire 1 V W_YELLOW~output_o $end
$var wire 1 W N_WG~output_o $end
$var wire 1 X N_RED~output_o $end
$var wire 1 Y E_WR~output_o $end
$var wire 1 Z E_RED~output_o $end
$var wire 1 [ S_WR~output_o $end
$var wire 1 \ S_RED~output_o $end
$var wire 1 ] W_WR~output_o $end
$var wire 1 ^ W_RED~output_o $end
$var wire 1 _ N_WR~output_o $end
$var wire 1 ` CLK~input_o $end
$var wire 1 a inst51|inst50|46~0_combout $end
$var wire 1 b inst51|inst50|45~0_combout $end
$var wire 1 c inst51|inst50|45~q $end
$var wire 1 d inst51|inst50|44~0_combout $end
$var wire 1 e inst51|inst50|44~q $end
$var wire 1 f inst51|inst50|43~0_combout $end
$var wire 1 g inst51|inst50|43~q $end
$var wire 1 h inst51|inst2~combout $end
$var wire 1 i inst51|inst50|46~q $end
$var wire 1 j inst~combout $end
$var wire 1 k inst~clkctrl_outclk $end
$var wire 1 l inst52|46~0_combout $end
$var wire 1 m inst52|46~q $end
$var wire 1 n inst52|45~0_combout $end
$var wire 1 o inst52|45~q $end
$var wire 1 p inst17|35~0_combout $end
$var wire 1 q inst51|inst90~0_combout $end
$var wire 1 r inst4|14~combout $end
$var wire 1 s inst17|35~1_combout $end
$var wire 1 t inst4|18~combout $end
$var wire 1 u inst50|14~combout $end
$var wire 1 v inst50|18~combout $end
$var wire 1 w inst4|20~combout $end
$var wire 1 x inst50|20~combout $end
$var wire 1 y inst17|33~combout $end
$var wire 1 z inst6|14~combout $end
$var wire 1 { inst6|18~combout $end
$var wire 1 | inst6|20~combout $end
$var wire 1 } inst8|14~combout $end
$var wire 1 ~ inst17|35~2_combout $end
$var wire 1 !! inst8|18~combout $end
$var wire 1 "! inst8|20~combout $end
$upscope $end
$upscope $end
$enddefinitions $end
#0
$dumpvars
0!
1"
1#
0$
0%
1&
0'
0(
0)
1*
0+
1,
0-
0.
0/
10
11
02
03
04
15
16
17
08
09
1:
0;
1<
0=
0>
1?
x@
1A
1B
1C
1D
0E
1F
0G
0H
0I
0J
0K
0L
0M
1N
0O
1P
0Q
1R
0S
1T
0U
0V
0W
1X
1Y
0Z
0[
1\
1]
1^
1_
0`
1a
0b
0c
0d
0e
0f
0g
0h
0i
1j
1k
1l
0m
0n
0o
0p
0q
0r
0s
0t
0u
0v
0w
0x
0y
1z
0{
1|
0}
0~
0!!
0"!
$end
#25000
1!
1`
1i
1b
0a
#50000
0!
0`
#75000
1!
1`
0i
1c
1a
#100000
0!
0`
#125000
1!
1`
1i
1d
0b
0a
#150000
0!
0`
#175000
1!
1`
0i
1e
0c
1a
#200000
0!
0`
#225000
1!
1`
1i
1b
0a
#250000
0!
0`
#275000
1!
1`
0i
1c
1q
1a
1{
0z
0N
0P
1Q
1'
0#
0"
#300000
0!
0`
0|
0R
01
#325000
1!
1`
1|
1R
11
1i
1f
0d
0b
0a
#350000
0!
0`
0|
0R
01
#375000
1!
1`
1|
1R
11
0i
1g
0e
0c
1a
#400000
0!
0`
0|
0R
01
#425000
1!
1`
1|
1R
11
1i
0j
0k
1b
0a
#450000
0!
0`
0|
0R
01
#475000
1!
1`
1|
1R
11
0i
1c
1j
1h
1k
1a
0c
0g
1m
0q
0h
0f
1s
0{
1z
0b
0|
1y
1w
1n
0l
1L
1O
1Z
1[
0R
1N
1P
0Q
0Y
0X
0F
05
0*
0&
0'
1#
1"
01
12
1$
14
1%
1r
0z
0N
0P
1E
1G
1)
1(
0#
0"
#500000
0!
0`
#525000
1!
1`
1i
1b
0a
#550000
0!
0`
#575000
1!
1`
0i
1c
1a
#600000
0!
0`
#625000
1!
1`
1i
1d
0b
0a
#650000
0!
0`
#675000
1!
1`
0i
1e
0c
1a
#700000
0!
0`
#725000
1!
1`
1i
1b
0a
#750000
0!
0`
#775000
1!
1`
0i
1c
1q
1a
1t
1H
1-
0r
0E
0G
0)
0(
#800000
0!
0`
0w
0L
0%
#825000
1!
1`
1w
1L
1%
1i
1f
0d
0b
0a
#850000
0!
0`
0w
0L
0%
#875000
1!
1`
1w
1L
1%
0i
1g
0e
0c
1a
#900000
0!
0`
0w
0L
0%
#925000
1!
1`
1w
1L
1%
1i
0j
0k
1b
0a
#950000
0!
0`
0w
0L
0%
#975000
1!
1`
1w
1L
1%
0i
1c
1j
1h
1k
1a
0c
0g
1o
0m
0q
0h
0f
0s
1p
0t
0b
1x
0w
1v
1l
1K
0L
1M
0H
0]
0\
0D
1Y
1X
1F
15
1*
1&
06
00
0<
0-
1;
0%
13
0v
1u
1I
1J
0K
03
1/
1.
#1000000
0!
0`
#1025000
1!
1`
1i
1b
0a
#1050000
0!
0`
#1075000
1!
1`
0i
1c
1a
#1100000
0!
0`
#1125000
1!
1`
1i
1d
0b
0a
#1150000
0!
0`
#1175000
1!
1`
0i
1e
0c
1a
#1200000
0!
0`
#1225000
1!
1`
1i
1b
0a
#1250000
0!
0`
#1275000
1!
1`
0i
1c
1q
1a
1v
0u
0I
0J
1K
13
0/
0.
#1300000
0!
0`
0x
0M
0;
#1325000
1!
1`
1x
1M
1;
1i
1f
0d
0b
0a
#1350000
0!
0`
0x
0M
0;
#1375000
1!
1`
1x
1M
1;
0i
1g
0e
0c
1a
#1400000
0!
0`
0x
0M
0;
#1425000
1!
1`
1x
1M
1;
1i
0j
0k
1b
0a
#1450000
0!
0`
0x
0M
0;
#1475000
1!
1`
1x
1M
1;
0i
1c
1j
1h
1k
1a
0c
0g
1m
0q
0h
0f
1~
0p
0b
1"!
0x
0v
0n
0l
0K
0M
1W
1]
1\
1D
0_
0^
0T
07
0:
0,
16
10
1<
1+
0;
03
1}
1S
1U
19
18
#1500000
0!
0`
#1525000
1!
1`
1i
1b
0a
#1550000
0!
0`
#1575000
1!
1`
0i
1c
1a
#1600000
0!
0`
#1625000
1!
1`
1i
1d
0b
0a
#1650000
0!
0`
#1675000
1!
1`
0i
1e
0c
1a
#1700000
0!
0`
#1725000
1!
1`
1i
1b
0a
#1750000
0!
0`
#1775000
1!
1`
0i
1c
1q
1a
1!!
1V
1=
0}
0S
0U
09
08
#1800000
0!
0`
0"!
0W
0+
#1825000
1!
1`
1"!
1W
1+
1i
1f
0d
0b
0a
#1850000
0!
0`
0"!
0W
0+
#1875000
1!
1`
1"!
1W
1+
0i
1g
0e
0c
1a
#1900000
0!
0`
0"!
0W
0+
#1925000
1!
1`
1"!
1W
1+
1i
0j
0k
1b
0a
#1950000
0!
0`
0"!
0W
0+
#1975000
1!
1`
1"!
1W
1+
0i
1c
1j
1h
1k
1a
0c
0g
0o
0m
0q
0h
0f
0~
0!!
0b
0"!
1|
0y
1l
0O
0Z
0[
1R
0W
0V
1_
1^
1T
17
1:
1,
0=
0+
11
02
0$
04
1z
1N
1P
1#
1"
#2000000
0!
0`
#2025000
1!
1`
1i
1b
0a
#2050000
0!
0`
#2075000
1!
1`
0i
1c
1a
#2100000
0!
0`
#2125000
1!
1`
1i
1d
0b
0a
#2150000
0!
0`
#2175000
1!
1`
0i
1e
0c
1a
#2200000
0!
0`
#2225000
1!
1`
1i
1b
0a
#2250000
0!
0`
#2275000
1!
1`
0i
1c
1q
1a
1{
0z
0N
0P
1Q
1'
0#
0"
#2300000
0!
0`
0|
0R
01
#2325000
1!
1`
1|
1R
11
1i
1f
0d
0b
0a
#2350000
0!
0`
0|
0R
01
#2375000
1!
1`
1|
1R
11
0i
1g
0e
0c
1a
#2400000
0!
0`
0|
0R
01
#2425000
1!
1`
1|
1R
11
1i
0j
0k
1b
0a
#2450000
0!
0`
0|
0R
01
#2475000
1!
1`
1|
1R
11
0i
1c
1j
1h
1k
1a
0c
0g
1m
0q
0h
0f
1s
0{
1z
0b
0|
1y
1w
1n
0l
1L
1O
1Z
1[
0R
1N
1P
0Q
0Y
0X
0F
05
0*
0&
0'
1#
1"
01
12
1$
14
1%
1r
0z
0N
0P
1E
1G
1)
1(
0#
0"
#2500000
0!
0`
#2525000
1!
1`
1i
1b
0a
#2550000
0!
0`
#2575000
1!
1`
0i
1c
1a
#2600000
0!
0`
#2625000
1!
1`
1i
1d
0b
0a
#2650000
0!
0`
#2675000
1!
1`
0i
1e
0c
1a
#2700000
0!
0`
#2725000
1!
1`
1i
1b
0a
#2750000
0!
0`
#2775000
1!
1`
0i
1c
1q
1a
1t
1H
1-
0r
0E
0G
0)
0(
#2800000
0!
0`
0w
0L
0%
#2825000
1!
1`
1w
1L
1%
1i
1f
0d
0b
0a
#2850000
0!
0`
0w
0L
0%
#2875000
1!
1`
1w
1L
1%
0i
1g
0e
0c
1a
#2900000
0!
0`
0w
0L
0%
#2925000
1!
1`
1w
1L
1%
1i
0j
0k
1b
0a
#2950000
0!
0`
0w
0L
0%
#2975000
1!
1`
1w
1L
1%
0i
1c
1j
1h
1k
1a
0c
0g
1o
0m
0q
0h
0f
0s
1p
0t
0b
1x
0w
1v
1l
1K
0L
1M
0H
0]
0\
0D
1Y
1X
1F
15
1*
1&
06
00
0<
0-
1;
0%
13
0v
1u
1I
1J
0K
03
1/
1.
#3000000
0!
0`
#3025000
1!
1`
1i
1b
0a
#3050000
0!
0`
#3075000
1!
1`
0i
1c
1a
#3100000
0!
0`
#3125000
1!
1`
1i
1d
0b
0a
#3150000
0!
0`
#3175000
1!
1`
0i
1e
0c
1a
#3200000
0!
0`
#3225000
1!
1`
1i
1b
0a
#3250000
0!
0`
#3275000
1!
1`
0i
1c
1q
1a
1v
0u
0I
0J
1K
13
0/
0.
#3300000
0!
0`
0x
0M
0;
#3325000
1!
1`
1x
1M
1;
1i
1f
0d
0b
0a
#3350000
0!
0`
0x
0M
0;
#3375000
1!
1`
1x
1M
1;
0i
1g
0e
0c
1a
#3400000
0!
0`
0x
0M
0;
#3425000
1!
1`
1x
1M
1;
1i
0j
0k
1b
0a
#3450000
0!
0`
0x
0M
0;
#3475000
1!
1`
1x
1M
1;
0i
1c
1j
1h
1k
1a
0c
0g
1m
0q
0h
0f
1~
0p
0b
1"!
0x
0v
0n
0l
0K
0M
1W
1]
1\
1D
0_
0^
0T
07
0:
0,
16
10
1<
1+
0;
03
1}
1S
1U
19
18
#3500000
0!
0`
#3525000
1!
1`
1i
1b
0a
#3550000
0!
0`
#3575000
1!
1`
0i
1c
1a
#3600000
0!
0`
#3625000
1!
1`
1i
1d
0b
0a
#3650000
0!
0`
#3675000
1!
1`
0i
1e
0c
1a
#3700000
0!
0`
#3725000
1!
1`
1i
1b
0a
#3750000
0!
0`
#3775000
1!
1`
0i
1c
1q
1a
1!!
1V
1=
0}
0S
0U
09
08
#3800000
0!
0`
0"!
0W
0+
#3825000
1!
1`
1"!
1W
1+
1i
1f
0d
0b
0a
#3850000
0!
0`
0"!
0W
0+
#3875000
1!
1`
1"!
1W
1+
0i
1g
0e
0c
1a
#3900000
0!
0`
0"!
0W
0+
#3925000
1!
1`
1"!
1W
1+
1i
0j
0k
1b
0a
#3950000
0!
0`
0"!
0W
0+
#3975000
1!
1`
1"!
1W
1+
0i
1c
1j
1h
1k
1a
0c
0g
0o
0m
0q
0h
0f
0~
0!!
0b
0"!
1|
0y
1l
0O
0Z
0[
1R
0W
0V
1_
1^
1T
17
1:
1,
0=
0+
11
02
0$
04
1z
1N
1P
1#
1"
#4000000
0!
0`
#4025000
1!
1`
1i
1b
0a
#4050000
0!
0`
#4075000
1!
1`
0i
1c
1a
#4100000
0!
0`
#4125000
1!
1`
1i
1d
0b
0a
#4150000
0!
0`
#4175000
1!
1`
0i
1e
0c
1a
#4200000
0!
0`
#4225000
1!
1`
1i
1b
0a
#4250000
0!
0`
#4275000
1!
1`
0i
1c
1q
1a
1{
0z
0N
0P
1Q
1'
0#
0"
#4300000
0!
0`
0|
0R
01
#4325000
1!
1`
1|
1R
11
1i
1f
0d
0b
0a
#4350000
0!
0`
0|
0R
01
#4375000
1!
1`
1|
1R
11
0i
1g
0e
0c
1a
#4400000
0!
0`
0|
0R
01
#4425000
1!
1`
1|
1R
11
1i
0j
0k
1b
0a
#4450000
0!
0`
0|
0R
01
#4475000
1!
1`
1|
1R
11
0i
1c
1j
1h
1k
1a
0c
0g
1m
0q
0h
0f
1s
0{
1z
0b
0|
1y
1w
1n
0l
1L
1O
1Z
1[
0R
1N
1P
0Q
0Y
0X
0F
05
0*
0&
0'
1#
1"
01
12
1$
14
1%
1r
0z
0N
0P
1E
1G
1)
1(
0#
0"
#4500000
0!
0`
#4525000
1!
1`
1i
1b
0a
#4550000
0!
0`
#4575000
1!
1`
0i
1c
1a
#4600000
0!
0`
#4625000
1!
1`
1i
1d
0b
0a
#4650000
0!
0`
#4675000
1!
1`
0i
1e
0c
1a
#4700000
0!
0`
#4725000
1!
1`
1i
1b
0a
#4750000
0!
0`
#4775000
1!
1`
0i
1c
1q
1a
1t
1H
1-
0r
0E
0G
0)
0(
#4800000
0!
0`
0w
0L
0%
#4825000
1!
1`
1w
1L
1%
1i
1f
0d
0b
0a
#4850000
0!
0`
0w
0L
0%
#4875000
1!
1`
1w
1L
1%
0i
1g
0e
0c
1a
#4900000
0!
0`
0w
0L
0%
#4925000
1!
1`
1w
1L
1%
1i
0j
0k
1b
0a
#4950000
0!
0`
0w
0L
0%
#4975000
1!
1`
1w
1L
1%
0i
1c
1j
1h
1k
1a
0c
0g
1o
0m
0q
0h
0f
0s
1p
0t
0b
1x
0w
1v
1l
1K
0L
1M
0H
0]
0\
0D
1Y
1X
1F
15
1*
1&
06
00
0<
0-
1;
0%
13
0v
1u
1I
1J
0K
03
1/
1.
#5000000
0!
0`
#5025000
1!
1`
1i
1b
0a
#5050000
0!
0`
#5075000
1!
1`
0i
1c
1a
#5100000
0!
0`
#5125000
1!
1`
1i
1d
0b
0a
#5150000
0!
0`
#5175000
1!
1`
0i
1e
0c
1a
#5200000
0!
0`
#5225000
1!
1`
1i
1b
0a
#5250000
0!
0`
#5275000
1!
1`
0i
1c
1q
1a
1v
0u
0I
0J
1K
13
0/
0.
#5300000
0!
0`
0x
0M
0;
#5325000
1!
1`
1x
1M
1;
1i
1f
0d
0b
0a
#5350000
0!
0`
0x
0M
0;
#5375000
1!
1`
1x
1M
1;
0i
1g
0e
0c
1a
#5400000
0!
0`
0x
0M
0;
#5425000
1!
1`
1x
1M
1;
1i
0j
0k
1b
0a
#5450000
0!
0`
0x
0M
0;
#5475000
1!
1`
1x
1M
1;
0i
1c
1j
1h
1k
1a
0c
0g
1m
0q
0h
0f
1~
0p
0b
1"!
0x
0v
0n
0l
0K
0M
1W
1]
1\
1D
0_
0^
0T
07
0:
0,
16
10
1<
1+
0;
03
1}
1S
1U
19
18
#5500000
0!
0`
#5525000
1!
1`
1i
1b
0a
#5550000
0!
0`
#5575000
1!
1`
0i
1c
1a
#5600000
0!
0`
#5625000
1!
1`
1i
1d
0b
0a
#5650000
0!
0`
#5675000
1!
1`
0i
1e
0c
1a
#5700000
0!
0`
#5725000
1!
1`
1i
1b
0a
#5750000
0!
0`
#5775000
1!
1`
0i
1c
1q
1a
1!!
1V
1=
0}
0S
0U
09
08
#5800000
0!
0`
0"!
0W
0+
#5825000
1!
1`
1"!
1W
1+
1i
1f
0d
0b
0a
#5850000
0!
0`
0"!
0W
0+
#5875000
1!
1`
1"!
1W
1+
0i
1g
0e
0c
1a
#5900000
0!
0`
0"!
0W
0+
#5925000
1!
1`
1"!
1W
1+
1i
0j
0k
1b
0a
#5950000
0!
0`
0"!
0W
0+
#5975000
1!
1`
1"!
1W
1+
0i
1c
1j
1h
1k
1a
0c
0g
0o
0m
0q
0h
0f
0~
0!!
0b
0"!
1|
0y
1l
0O
0Z
0[
1R
0W
0V
1_
1^
1T
17
1:
1,
0=
0+
11
02
0$
04
1z
1N
1P
1#
1"
#6000000
0!
0`
#6025000
1!
1`
1i
1b
0a
#6050000
0!
0`
#6075000
1!
1`
0i
1c
1a
#6100000
0!
0`
#6125000
1!
1`
1i
1d
0b
0a
#6150000
0!
0`
#6175000
1!
1`
0i
1e
0c
1a
#6200000
0!
0`
#6225000
1!
1`
1i
1b
0a
#6250000
0!
0`
#6275000
1!
1`
0i
1c
1q
1a
1{
0z
0N
0P
1Q
1'
0#
0"
#6300000
0!
0`
0|
0R
01
#6325000
1!
1`
1|
1R
11
1i
1f
0d
0b
0a
#6350000
0!
0`
0|
0R
01
#6375000
1!
1`
1|
1R
11
0i
1g
0e
0c
1a
#6400000
0!
0`
0|
0R
01
#6425000
1!
1`
1|
1R
11
1i
0j
0k
1b
0a
#6450000
0!
0`
0|
0R
01
#6475000
1!
1`
1|
1R
11
0i
1c
1j
1h
1k
1a
0c
0g
1m
0q
0h
0f
1s
0{
1z
0b
0|
1y
1w
1n
0l
1L
1O
1Z
1[
0R
1N
1P
0Q
0Y
0X
0F
05
0*
0&
0'
1#
1"
01
12
1$
14
1%
1r
0z
0N
0P
1E
1G
1)
1(
0#
0"
#6500000
0!
0`
#6525000
1!
1`
1i
1b
0a
#6550000
0!
0`
#6575000
1!
1`
0i
1c
1a
#6600000
0!
0`
#6625000
1!
1`
1i
1d
0b
0a
#6650000
0!
0`
#6675000
1!
1`
0i
1e
0c
1a
#6700000
0!
0`
#6725000
1!
1`
1i
1b
0a
#6750000
0!
0`
#6775000
1!
1`
0i
1c
1q
1a
1t
1H
1-
0r
0E
0G
0)
0(
#6800000
0!
0`
0w
0L
0%
#6825000
1!
1`
1w
1L
1%
1i
1f
0d
0b
0a
#6850000
0!
0`
0w
0L
0%
#6875000
1!
1`
1w
1L
1%
0i
1g
0e
0c
1a
#6900000
0!
0`
0w
0L
0%
#6925000
1!
1`
1w
1L
1%
1i
0j
0k
1b
0a
#6950000
0!
0`
0w
0L
0%
#6975000
1!
1`
1w
1L
1%
0i
1c
1j
1h
1k
1a
0c
0g
1o
0m
0q
0h
0f
0s
1p
0t
0b
1x
0w
1v
1l
1K
0L
1M
0H
0]
0\
0D
1Y
1X
1F
15
1*
1&
06
00
0<
0-
1;
0%
13
0v
1u
1I
1J
0K
03
1/
1.
#7000000
0!
0`
#7025000
1!
1`
1i
1b
0a
#7050000
0!
0`
#7075000
1!
1`
0i
1c
1a
#7100000
0!
0`
#7125000
1!
1`
1i
1d
0b
0a
#7150000
0!
0`
#7175000
1!
1`
0i
1e
0c
1a
#7200000
0!
0`
#7225000
1!
1`
1i
1b
0a
#7250000
0!
0`
#7275000
1!
1`
0i
1c
1q
1a
1v
0u
0I
0J
1K
13
0/
0.
#7300000
0!
0`
0x
0M
0;
#7325000
1!
1`
1x
1M
1;
1i
1f
0d
0b
0a
#7350000
0!
0`
0x
0M
0;
#7375000
1!
1`
1x
1M
1;
0i
1g
0e
0c
1a
#7400000
0!
0`
0x
0M
0;
#7425000
1!
1`
1x
1M
1;
1i
0j
0k
1b
0a
#7450000
0!
0`
0x
0M
0;
#7475000
1!
1`
1x
1M
1;
0i
1c
1j
1h
1k
1a
0c
0g
1m
0q
0h
0f
1~
0p
0b
1"!
0x
0v
0n
0l
0K
0M
1W
1]
1\
1D
0_
0^
0T
07
0:
0,
16
10
1<
1+
0;
03
1}
1S
1U
19
18
#7500000
0!
0`
#7525000
1!
1`
1i
1b
0a
#7550000
0!
0`
#7575000
1!
1`
0i
1c
1a
#7600000
0!
0`
#7625000
1!
1`
1i
1d
0b
0a
#7650000
0!
0`
#7675000
1!
1`
0i
1e
0c
1a
#7700000
0!
0`
#7725000
1!
1`
1i
1b
0a
#7750000
0!
0`
#7775000
1!
1`
0i
1c
1q
1a
1!!
1V
1=
0}
0S
0U
09
08
#7800000
0!
0`
0"!
0W
0+
#7825000
1!
1`
1"!
1W
1+
1i
1f
0d
0b
0a
#7850000
0!
0`
0"!
0W
0+
#7875000
1!
1`
1"!
1W
1+
0i
1g
0e
0c
1a
#7900000
0!
0`
0"!
0W
0+
#7925000
1!
1`
1"!
1W
1+
1i
0j
0k
1b
0a
#7950000
0!
0`
0"!
0W
0+
#7975000
1!
1`
1"!
1W
1+
0i
1c
1j
1h
1k
1a
0c
0g
0o
0m
0q
0h
0f
0~
0!!
0b
0"!
1|
0y
1l
0O
0Z
0[
1R
0W
0V
1_
1^
1T
17
1:
1,
0=
0+
11
02
0$
04
1z
1N
1P
1#
1"
#8000000
0!
0`
#8025000
1!
1`
1i
1b
0a
#8050000
0!
0`
#8075000
1!
1`
0i
1c
1a
#8100000
0!
0`
#8125000
1!
1`
1i
1d
0b
0a
#8150000
0!
0`
#8175000
1!
1`
0i
1e
0c
1a
#8200000
0!
0`
#8225000
1!
1`
1i
1b
0a
#8250000
0!
0`
#8275000
1!
1`
0i
1c
1q
1a
1{
0z
0N
0P
1Q
1'
0#
0"
#8300000
0!
0`
0|
0R
01
#8325000
1!
1`
1|
1R
11
1i
1f
0d
0b
0a
#8350000
0!
0`
0|
0R
01
#8375000
1!
1`
1|
1R
11
0i
1g
0e
0c
1a
#8400000
0!
0`
0|
0R
01
#8425000
1!
1`
1|
1R
11
1i
0j
0k
1b
0a
#8450000
0!
0`
0|
0R
01
#8475000
1!
1`
1|
1R
11
0i
1c
1j
1h
1k
1a
0c
0g
1m
0q
0h
0f
1s
0{
1z
0b
0|
1y
1w
1n
0l
1L
1O
1Z
1[
0R
1N
1P
0Q
0Y
0X
0F
05
0*
0&
0'
1#
1"
01
12
1$
14
1%
1r
0z
0N
0P
1E
1G
1)
1(
0#
0"
#8500000
0!
0`
#8525000
1!
1`
1i
1b
0a
#8550000
0!
0`
#8575000
1!
1`
0i
1c
1a
#8600000
0!
0`
#8625000
1!
1`
1i
1d
0b
0a
#8650000
0!
0`
#8675000
1!
1`
0i
1e
0c
1a
#8700000
0!
0`
#8725000
1!
1`
1i
1b
0a
#8750000
0!
0`
#8775000
1!
1`
0i
1c
1q
1a
1t
1H
1-
0r
0E
0G
0)
0(
#8800000
0!
0`
0w
0L
0%
#8825000
1!
1`
1w
1L
1%
1i
1f
0d
0b
0a
#8850000
0!
0`
0w
0L
0%
#8875000
1!
1`
1w
1L
1%
0i
1g
0e
0c
1a
#8900000
0!
0`
0w
0L
0%
#8925000
1!
1`
1w
1L
1%
1i
0j
0k
1b
0a
#8950000
0!
0`
0w
0L
0%
#8975000
1!
1`
1w
1L
1%
0i
1c
1j
1h
1k
1a
0c
0g
1o
0m
0q
0h
0f
0s
1p
0t
0b
1x
0w
1v
1l
1K
0L
1M
0H
0]
0\
0D
1Y
1X
1F
15
1*
1&
06
00
0<
0-
1;
0%
13
0v
1u
1I
1J
0K
03
1/
1.
#9000000
0!
0`
#9025000
1!
1`
1i
1b
0a
#9050000
0!
0`
#9075000
1!
1`
0i
1c
1a
#9100000
0!
0`
#9125000
1!
1`
1i
1d
0b
0a
#9150000
0!
0`
#9175000
1!
1`
0i
1e
0c
1a
#9200000
0!
0`
#9225000
1!
1`
1i
1b
0a
#9250000
0!
0`
#9275000
1!
1`
0i
1c
1q
1a
1v
0u
0I
0J
1K
13
0/
0.
#9300000
0!
0`
0x
0M
0;
#9325000
1!
1`
1x
1M
1;
1i
1f
0d
0b
0a
#9350000
0!
0`
0x
0M
0;
#9375000
1!
1`
1x
1M
1;
0i
1g
0e
0c
1a
#9400000
0!
0`
0x
0M
0;
#9425000
1!
1`
1x
1M
1;
1i
0j
0k
1b
0a
#9450000
0!
0`
0x
0M
0;
#9475000
1!
1`
1x
1M
1;
0i
1c
1j
1h
1k
1a
0c
0g
1m
0q
0h
0f
1~
0p
0b
1"!
0x
0v
0n
0l
0K
0M
1W
1]
1\
1D
0_
0^
0T
07
0:
0,
16
10
1<
1+
0;
03
1}
1S
1U
19
18
#9500000
0!
0`
#9525000
1!
1`
1i
1b
0a
#9550000
0!
0`
#9575000
1!
1`
0i
1c
1a
#9600000
0!
0`
#9625000
1!
1`
1i
1d
0b
0a
#9650000
0!
0`
#9675000
1!
1`
0i
1e
0c
1a
#9700000
0!
0`
#9725000
1!
1`
1i
1b
0a
#9750000
0!
0`
#9775000
1!
1`
0i
1c
1q
1a
1!!
1V
1=
0}
0S
0U
09
08
#9800000
0!
0`
0"!
0W
0+
#9825000
1!
1`
1"!
1W
1+
1i
1f
0d
0b
0a
#9850000
0!
0`
0"!
0W
0+
#9875000
1!
1`
1"!
1W
1+
0i
1g
0e
0c
1a
#9900000
0!
0`
0"!
0W
0+
#9925000
1!
1`
1"!
1W
1+
1i
0j
0k
1b
0a
#9950000
0!
0`
0"!
0W
0+
#9975000
1!
1`
1"!
1W
1+
0i
1c
1j
1h
1k
1a
0c
0g
0o
0m
0q
0h
0f
0~
0!!
0b
0"!
1|
0y
1l
0O
0Z
0[
1R
0W
0V
1_
1^
1T
17
1:
1,
0=
0+
11
02
0$
04
1z
1N
1P
1#
1"
